{
  "docs": {
    "Getting Started": [
      "getting-started",
      "update-firmware",
      "visualize-record"
    ],
    "Modules": [
      "accumulator-module"
    ],
    "Module API": [
      "getting-ready-for-development",
      "first-module",
      "module-api",
      "io-api",
      "configuration-api",
      "logging-api"
    ],
    "Event Processing API": [
      "event-store",
      "event-stream-slicing",
      "time-surface",
      "tools"
    ],
    "Other Resources": [
      "python-integration"
    ]
}
}
